…
✨ The **gdverse** package supports the use of robust discretization for
the [robust geographical
detector](https://doi.org/10.1016/j.jag.2022.102782) and [robust
interaction detector](https://doi.org/10.1016/j.spasta.2024.100814). For
details on using them, please refer to
<https://stscl.github.io/gdverse/articles/rgdrid.html>.

## Example

``` r
library(gdverse)
data("ndvi")
ndvi
## # A tibble: 713 × 7
##    NDVIchange Climatezone Mining Tempchange Precipitation    GDP Popdensity
##         <dbl> <chr>       <fct>       <dbl>         <dbl>  <dbl>      <dbl>
##  1    0.116   Bwk         low         0.256          237.  12.6      1.45  
##  2    0.0178  Bwk         low         0.273          214.   2.69     0.801 
##  3    0.138   Bsk         low         0.302          449.  20.1     11.5   
##  4    0.00439 Bwk         low         0.383          213.   0        0.0462
##  5    0.00316 Bwk         low         0.357          205.   0        0.0748
##  6    0.00838 Bwk         low         0.338          201.   0        0.549 
##  7    0.0335  Bwk         low         0.296          210.  11.9      1.63  
##  8    0.0387  Bwk         low         0.230          236.  30.2      4.99  
##  9    0.0882  Bsk         low         0.214          342. 241       20.0   
## 10    0.0690  Bsk         low         0.245          379.  42.0      7.50  
## # ℹ 703 more rows
```
…
